1	ФИО-1	Гр-11
2	ФИО-2	Гр-12
3	ФИО-3	Гр-1
4	ФИО-4	Гр-1
5	ФИО-5	Гр-1
6	ФИО-6	Гр-1
7	ФИО-7	Гр-1
8	ФИО-8	Гр-1
9	ФИО-9	Гр-1
10	ФИО-10	Гр-2
11	ФИО-11	Гр-1
12	ФИО-12	Гр-2
13	ФИО-13	Гр-2
14	ФИО-14	Гр-2
15	ФИО-15	Гр-2
16	ФИО-16	Гр-2
17	ФИО-17	Гр-2
18	ФИО-18	Гр-2
19	ФИО-19	Гр-2
20	ФИО-20	Гр-2
21	ФИО-21	Гр-3
22	ФИО-22	Гр-3
23	ФИО-23	Гр-3
24	ФИО-24	Гр-3
25	ФИО-25	Гр-3
26	ФИО-26	Гр-3
27	ФИО-27	Гр-3
28	ФИО-28	Гр-3
29	ФИО-29	Гр-3
30	ФИО-30	Гр-3
